{
    "dir": "ISO",
    "ISO": {

"Alma": {
    "dir":      "Alma",
    "alias":    "Alma Linux",
    "class":    "alma",
    "tip":      "RedHat-based community driven non-profit"
},
"Alpine": {
    "dir":      "Alpine",
    "alias":    "Alpine Linux",
    "class":    "alpine",
    "tip":      "Designed for security regarding network devices"
},
"antiX": {
    "dir":      "antiX",
    "alias":    "antiX",
    "class":    "antix",
    "tip":      "Debian-based light-weight that is suitable for older systems"
},
"Arch": {
    "dir":      "Arch",
    "alias":    "Arch Linux",
    "class":    "arch",
    "tip":      "Bleeding-edge with personal installation and newer features",
    "sub": {
        "Arco": {
            "dir":      "Arco",
            "alias":    "Arco Linux",
            "class":    "arco",
            "tip":      "Arch-based foxuses on providing learning regarding Linux"
        },
        "Artix": {
            "dir":      "Artix",
            "alias":    "Artix",
            "class":    "artix",
            "tip":      "Arch-based focusing on being light-weight"    
        }
    }
},

"Bluestar": {
    "dir":      "Bluestar",
    "alias":    "Bluestar Linux",
    "class":    "bluestar",
    "tip":      "Arch-based featuring full suite of desktop and multimedia applications"
},
"Bodhi": {
    "dir":      "Bodhi",
    "alias":    "Bodhi",
    "class":    "bodhi",
    "tip":      "Ubuntu-based aiming for minimalisism, customisation, and light-weight"
},
"Bunsenlabs": {
    "dir":      "Bunsen",
    "alias":    "Bunsenlabs",
    "class":    "bunsenlabs",
    "tip":      "Debian-based is light-weight and easily customizable"
},
"CentOS": {
    "dir":      "Cent",
    "alias":    "CentOS",
    "class":    "centos",
    "tip":      "RedHat-based community driven and sponsored by RedHat"
},
"Clear": {
    "dir":      "Clear",
    "alias":    "Clear Linux",
    "class":    "clear",
    "tip":      "Light-weight focusing on cloud use-cases"
},
"Debian": {
    "dir":      "Debian",
    "alias":    "Debian",
    "class":    "debian",
    "tip":      "Most popular between stable distributions, with extensive repositories"
},
"Deepin": {
    "dir":      "Deepin",
    "alias":    "Deepin",
    "class":    "deepin",
    "tip":      "Debian-based aiming for elegance, intuivity, and reliability"
},
"ElementaryOS": {
    "dir":      "Elementary",
    "alias":    "ElementaryOS",
    "class":    "elementary",
    "tip":      "Ubuntu-based with lots of custom applications and a DE"
},
"EndeavourOS": {
    "dir":      "Endeavour",
    "alias":    "EndeavourOS",
    "class":    "endeavour",
    "tip":      "Arch-based with easy setup andpre-configured DE"
},
"Endless": {
    "dir":      "Endless",
    "alias":    "Endless",
    "class":    "endless",
    "tip":      "Debian-based providing a simplified and streamlined user experience"
},
"Fedora": {
    "dir":      "Fedora",
    "alias":    "Fedora",
    "class":    "fedora",
    "tip":      "Focuses on innovation, integrating new technologies"
},
"Feren": {
    "dir":      "Feren",
    "alias":    "Feren Linux",
    "class":    "feren",
    "tip":      "Ubuntu-based with custom defaults and applications"
},
"Garuda": {
    "dir":      "Garuda",
    "alias":    "Garuda Linux",
    "class":    "garuda",
    "tip":      "Arch-based with graphical tools and performance tweaks"
},
"Gentoo": {
    "dir":      "Gentoo",
    "alias":    "Gentoo",
    "class":    "gentoo",
    "tip":      "Geared towards developers and networks professionals"
},
"KaliOS": {
    "dir":      "Kali",
    "alias":    "KaliOS",
    "class":    "kali",
    "tip":      "Debian-based with security and forensic tools"
},
"KaOS": {
    "dir":      "KaOS",
    "alias":    "KaOS",
    "class":    "kaos",
    "tip":      "Integrates popular applications using the Qt-framework"
},
"Knoppix": {
    "dir":      "Knoppix",
    "alias":    "Knoppix",
    "class":    "knoppix",
    "tip":      "Debian-based bootable disc"
},
"Lite": {
    "dir":      "Lite",
    "alias":    "Lite",
    "class":    "lite",
    "tip":      "Ubuntu-based focusing on essential tools for daily use"
},
"MaBox": {
    "dir":      "MaBox",
    "alias":    "MaBox",
    "class":    "mabox",
    "tip":      "Manjaro-based with Openbox VM and additional software"
},
"MacOS": {
    "dir":      "Mac",
    "alias":    "MacOS",
    "class":    "macosx"
},
"Mageia": {
    "dir":      "Mageia",
    "alias":    "Mageia",
    "class":    "mageia",
    "tip":      "Community driven continuation of Mandriva"
},
"Manjaro": {
    "dir":      "Manjaro",
    "alias":    "Manjaro",
    "class":    "manjaro",
    "tip":      "Arch-based focused on user-friendliness, speed, and desktop-orientaiton"
},
"Mint": {
    "dir":      "Mint",
    "alias":    "Linux Mint",
    "class":    "mint",
    "tip":      "Ubuntu-based focusing on classic and convenient desktop usage"
},
"MX": {
    "dir":      "MX",
    "alias":    "MX Linux",
    "class":    "mx",
    "tip":      "Debian- and antiX-based focusing on elegance and efficiency"
},
"Neon": {
    "dir":      "Neon",
    "alias":    "KDE Neon",
    "class":    "neon",
    "tip":      "Ubuntu-based featuring the full suite of KDE applications"
},
"Netrunner": {
    "dir":      "Netrunner",
    "alias":    "Netrunner",
    "class":    "netrunner",
    "tip":      "Debian-based enhancing user-friendliness and allowing tweaking"
},
"NixOS": {
    "dir":      "Nix",
    "alias":    "NixOS",
    "class":    "nixos",
    "tip":      "Has a greatly improved system configuration management"
},
"OpenMandriva": {
    "dir":      "OpenMandriva",
    "alias":    "OpenMandriva",
    "class":    "openmandriva",
    "tip":      "Main goal to promote open source software"
},
"Parrot": {
    "dir":      "Parrot",
    "alias":    "Parrot",
    "class":    "parrot",
    "tip":      "Debian-based featuring lots of hacking utilities"
},
"PCLOS": {
    "dir":      "PCLOS",
    "alias":    "PC Linux",
    "class":    "pclinuxos",
    "tip":      "Extensively supports peripherals, as well as graphics and sound cards"
},
"Peppermint": {
    "dir":      "Peppermint",
    "alias":    "Peppermint",
    "class":    "peppermint",
    "tip":      "Debian-based lightning fast and easy on system resources"
},
"PopOS": {
    "dir":      "Pop",
    "alias":    "Pop!_OS",
    "class":    "pop",
    "tip":      "Ubuntu-based decluttered desktop developed by System76"
},
"Puppy": {
    "dir":      "Puppy",
    "alias":    "Puppy",
    "class":    "puppy",
    "tip":      "Puppy runs entirely on memory and is quite responsive"
},
"Q4OS": {
    "dir":      "Q4",
    "alias":    "Q4OS",
    "class":    "q4os",
    "tip":      "Debian-based that has low hardware requirements"
},
"QubesOS": {
    "dir":      "Qubes",
    "alias":    "QubesOS",
    "class":    "qubes",
    "tip":      "Fedora-based focusing on security by isolation"
},
"Raspberry": {
    "dir":      "Raspberry",
    "alias":    "Raspberry Pi OS",
    "class":    "raspios",
    "tip":      "Debian-based that focuses on running on Raspberry Pi's"
},
"RebornOS": {
    "dir":      "Reborn",
    "alias":    "RebornOS",
    "class":    "rebornos",
    "tip":      "Arch-based with custom defaults"
},
"RHEL": {
    "dir":      "RHEL",
    "alias":    "RedHat Enterpirse Linux",
    "class":    "redhat",
    "tip":      "Fedora-based further developed by RedHat, aimed for enterprise systems"
},
"Rosa": {
    "dir":      "Rosa",
    "alias":    "Rosa",
    "class":    "rosa",
    "tip":      "Russian developed Debian-based that focues on userfriendliness"
},
"Septor": {
    "dir":      "Septor",
    "alias":    "Septor",
    "class":    "septor",
    "tip":      "Debian-based that focues on privacy with anominmous surfing"
},
"Slackware": {
    "dir":      "Slackware",
    "alias":    "Slackware",
    "class":    "slackware",
    "tip":      "Slackware is an old distro, stable but not at all beginner-friendly"
},
"Solus": {
    "dir":      "Solus",
    "alias":    "Solus",
    "class":    "solus",
    "tip":      "Solus does a modern take on the personal desktop"
},
"SUSE": {
    "dir":      "SUSE",
    "alias":    "openSUSE",
    "class":    "suse",
    "tip":      "openSUSE leads in developing Open Source"
},
"TinyCore": {
    "dir":      "TinyCore",
    "alias":    "TinyCore",
    "class":    "tinycore",
    "tip":      "Tiny Core runs on memory and boots quickly"
},
"Ubuntu": {
    "dir":      "Ubuntu",
    "alias":    "Ubuntu",
    "class":    "ubuntu",
    "tip":      "Ubuntu is one of the largest and popular distributions",
    "sub": {
        "Cinnamon": {
            "dir":      "Cinnamon",
            "alias":    "Ubuntu Cinnamon",
            "class":    "ubuntu_cinnamon"
        },
        "DDE": {
            "dir":      "DDE",
            "alias":    "Ubuntu DDE",
            "class":    "ubuntu_dde"
        },
        "Kubuntu": {
            "dir":      "Kubuntu",
            "alias":    "Kubuntu",
            "class":    "kubuntu",
            "tip":      "Ubuntu with KDE-packages"
        },
        "Lubuntu": {
            "dir":      "Lubuntu",
            "alias":    "Lubuntu",
            "class":    "lubuntu",
            "tip":      "Ubuntu-based focusing on being light-weight and energy efficent"
        },
        "Mate": {
            "dir":      "Mate",
            "alias":    "Ubuntu Mate",
            "class":    "ubuntu_mate"
        },
        "Unity": {
            "dir":      "Unity",
            "alias":    "Ubuntu Unity",
            "class":    "ubuntu_unity"
        },
        "Xubuntu": {
            "dir":      "Xubuntu",
            "alias":    "Xubuntu",
            "class":    "xubuntu"
        }
    }
},
"Void": {
    "dir":      "Void",
    "alias":    "Void",
    "class":    "void",
    "tip":      "Void is more obscure but indepedent"
},
"Windows": {
    "dir":      "Win",
    "alias":    "Windows",
    "class":    "windows"
},
"ZorinOS": {
    "dir":      "Zorin",
    "alias":    "ZorinOS",
    "class":    "zorin",
    "tip":      "ZorinOS tries to replicate Windows to a fault"
}

}}